<?xml version="1.0" standalone="no"?>
<!DOCTYPE svg PUBLIC "-//W3C//DTD SVG 1.1//EN" "http://www.w3.org/Graphics/SVG/1.1/DTD/svg11.dtd">
<svg xmlns="http://www.w3.org/2000/svg">
<metadata>Generated by Fontastic.me</metadata>
<defs>
<font id="greenshield-custom-icons" horiz-adv-x="512">
<font-face font-family="greenshield-custom-icons" units-per-em="512" ascent="480" descent="-32"/>
<missing-glyph horiz-adv-x="512" />

<glyph glyph-name="dental-basic" unicode="&#97;" d="M123 157c2 29 4 57 6 84 2 32-4 62-15 91-13 30-25 59-34 89-4 11-4 27-4 38 2 21 15 34 32 42 29 13 59 11 89 3 13-3 27-7 38-11 13-4 27-4 40 0 23 6 44 13 66 17 21 4 42 0 63-9 23-12 34-31 32-57-2-25-11-48-21-70-9-23-19-46-26-71-8-20-8-43-6-66 4-47 6-95 0-142-4-29-9-55-26-80-2-4-4-6-8-7-11-10-21-10-29 3-5 12-9 25-11 36-6 31-9 63-15 93-4 19-10 38-15 59-2 8-8 13-12 19-7 10-19 10-26 0-6-6-10-13-13-21-12-28-16-57-21-87-4-27-8-51-14-78-1-7-5-15-9-23-6-11-15-11-27-3-13 11-20 26-26 43-8 27-12 53-12 80 4 9 4 19 4 28z"/>
<glyph glyph-name="dental-comprehensive" unicode="&#98;" d="M417 382c5 0 11 2 18 4 4 2 6 3 6 7 0 35 0 70 0 104 0 6-2 10-8 10-9 1-18 5-27 5-17 2-35 0-49-7-4-2-8-6-6-9 0-8 0-15 0-22-110-15-218-21-324 11l0-55c22-4 42-8 63-9 40-6 78-11 118-11 46 1 90 3 136 5 7 0 9-2 9-7 0-4 2-8 2-11 0-8 3-11 13-13 12-2 14-4 14-16 0-6 0-10 7-10 2-33 4-64 6-95 0-3 0-7 0-12 2 0 5 0 5 0l0 109c10 0 8 6 8 9-2 8 2 11 9 13z m-90-130c-27-5-49-25-53-51-2-18-2-36 0-55 2-36 4-73 6-111 0-11 0-24 0-35 7 2 13 5 14 13 2 9 6 18 6 29 0 20-2 40-2 60-2 17 0 35 9 50 8 14 20 22 37 22 16 0 29-8 36-22 4-9 8-19 8-26 0-20-2-40-2-62 0-15 2-31 3-46 2-7 6-14 17-14 0 3 0 7 0 9 0 33 0 64 2 97 0 27 2 55 2 84-6 38-46 64-83 58z m150 86c-9 20-24 33-45 37-4 0-8 0-8-6-2-7-3-12-5-20-9-45-4-93 2-139 3-23 9-47 9-71 0-31-6-60-9-91-2-17-6-32-10-48 0 0 2-2 2-2 4 6 9 9 13 15 4 5 6 11 7 16 13 40 19 83 17 123-2 27 2 53 14 78 4 10 8 19 11 28 11 27 13 55 2 80z m-223-170c4 35 6 70 7 104 2 35 0 68-5 103-18-2-33-9-44-22-15-20-20-42-15-66 4-20 13-40 21-60 9-22 14-42 12-66-1-33 0-68 8-101 3-16 7-34 18-49 4-4 7-7 11-13 0 0 2 2 2 2-4 20-8 40-11 62-6 37-7 71-4 106z"/>
<glyph glyph-name="dental-major" unicode="&#99;" d="M455 495c-17-15-32-30-49-46 7 0 13 0 21 0-17-17-34-34-52-49 0 0 2-2 2-2 4 0 10 0 16 0-8-9-16-19-23-26 0 0 0 0 2-2 13 9 26 21 41 32-5 0-9 0-15 0 23 19 44 36 67 55-6 0-10 0-12 2 0 0 0 0 0 2 6 2 10 5 17 9 2-9 4-19 4-30 2-34-6-68-13-101-8-32-17-62-25-92 0-4 0-8 0-10 12-51 17-102 6-155-6-25-15-48-34-65-15-13-34-19-53-17-12 0-16 8-12 19 2 4 4 8 6 11 19 27 21 55 17 88-2 22-13 39-30 53-25 17-50 34-74 51-2 2-6 2-8 0-30-19-61-38-85-63-14-13-17-30-21-47-4-30 0-61 19-85 0-2 2-2 2-4 7-14 2-23-14-23-30 0-53 15-68 42-15 28-21 59-21 89-2 36 2 72 12 106 0 4 0 8 0 10-12 45-23 91-32 136-8 25-10 49-6 72 6 30 21 48 51 53 38 8 76 4 112-4 15-3 30-7 47-9 4 0 8 0 12 0 40 9 79 17 119 17 17 0 34-4 51-8 8-1 14-5 23-9z"/>
<glyph glyph-name="travel-emergency" unicode="&#100;" d="M365 192c0-5-3-9-8-9l-63 0 0-63c0-5-4-8-9-8l-55 0c-5 0-8 3-8 8l0 63-67 0c-5 0-8 4-8 9l0 55c0 5 3 8 8 8l63 0 0 65c0 5 4 9 9 9l55 0c5 0 8-4 8-9l0-63 63 0c5 0 9-4 9-9l0-56z m-182 210l0 37 146 0 0-35-146 0z m-110 0l-10 0c-34 0-63-29-63-63l0-239c0-36 29-63 63-63l9 0 0 365z m338 0l-46 0 0 46c0 15-12 27-27 27l-164 0c-15 0-27-12-27-27l0-46-46 0 0-365 310 0z m101-63c0 36-29 63-63 63l-9 0 0-365 9 0c36 0 63 29 63 63z"/>
<glyph glyph-name="vision-examination" unicode="&#101;" d="M325 352c-42 18-85 22-127 4-47-15-84-44-116-82-6-7-6-14 0-22 23-25 47-47 76-65 29-18 62-29 100-31 14 0 29 2 45 7 51 15 91 48 124 89 5 6 5 13 0 20-29 35-62 62-102 80z m-69-161c-38 0-69 32-69 72 0 40 31 71 69 71 38 0 67-33 67-71 0-38-31-72-67-72z m0 96c-13 0-22-11-22-24 0-14 11-25 22-25 13 0 22 11 22 25 0 13-11 24-22 24z m-249 76c4 0 6 2 6 7 0 2 0 4 0 4 0 9 0 18 0 27 11 0 23 0 32 0 4 0 6 2 6 6 0 3-2 5-6 5-14 0-25 0-38 0-5 0-7-2-7-7 0-4 0-11 0-15 0-7 0-14 0-23 0-2 2-4 7-4z m38-249c-12 0-21 0-32 0 0 4 0 8 0 15 0 5 0 9 0 13 0 5-2 9-6 9-5 0-7-4-7-9 0-8 0-17 0-24 0-18 0-18 16-18 8 0 17 0 29 0 6 0 8 5 6 9-2 2-4 5-6 5z m422 284c12 0 21 0 32 0 0-8 0-17 0-26 0-2 0-5 0-5 0-4 2-6 6-6 5 0 7 2 7 6 0 7 0 14 0 20 0 5 0 11 0 16 0 4-2 9-7 9-13 0-26 0-38 0-4 0-6-2-6-7 0-4 2-7 6-7z m45-280c0 9 0 18 0 24 0 5-2 7-7 9-4 0-6-2-6-9 0-4 0-8 0-13 0-4 0-9 0-15-11 0-20 0-32 0-2 0-6-3-6-5-2-4 2-9 6-9 9 0 18 0 29 0 16 0 16 2 16 18z"/>
<glyph glyph-name="vision-glasses" unicode="&#102;" d="M506 271c-43 47-92 85-150 113-59 28-121 30-183 9-64-26-120-69-167-122-8-11-8-19 0-30 32-36 69-66 109-90 43-25 90-42 145-42 19 0 43 4 66 10 73 24 131 69 182 126 6 7 6 17-2 26z m-250-117c-55 0-98 44-98 102 0 58 45 102 100 100 53 0 96-47 96-102 0-53-45-100-98-100z m0 136c-17 0-32-15-32-34 0-19 15-34 32-34 17 0 32 15 32 34 0 19-15 34-32 34z"/>
<glyph glyph-name="hospital" unicode="&#103;" d="M483 118c0 4 0 7 0 11 0 67 0 134 0 202 0 15-7 22-22 22-30 0-60 0-91 0-6 0-6 0-6-6 0-71 0-143 0-214 0-4-1-8-1-12-5 0-8 0-12 0 0 2 0 4 0 8 0 95 0 189 0 284 0 13-7 20-19 20-51 0-103 0-154 0-12 0-20-7-20-20 0-95 0-189 0-284 0-2 0-5 0-7-3 0-8 0-11 0 0 5-1 9-1 14 0 71 0 142 0 214 0 5 0 5-6 5-30 0-60 0-90 0-6 0-12-1-17-7-1-6-2-11-2-16 0-26 0-52 0-78 0-42 0-84 0-126 0-4 0-7 0-11-10 0-21 0-31 0 0-12 0-24 0-37 47 0 95 0 142 0 122 0 242 0 363 0 1 0 4 0 5 0 0 13 0 25 0 37-8 1-18 1-27 1z m-424 187c0 2 1 3 2 3 7 0 14 0 21 0 2 0 2-1 2-3 0-7 0-13 0-20 0-2-1-4-3-4-4 0-7 0-9 0-4 0-7 0-10 0-2 0-3 2-3 4 0 6 0 13 0 20z m1-113c0 9 0 18 0 26 8 0 16 0 23 0 1 0 3-1 3-2 0-9 0-15 0-24-10 0-18 0-26 0z m26 46c-10 0-18 0-26 0 0 8 0 16 0 25 5 0 9 0 14 0 3 0 9 1 12-1 2-3 1-7 1-11-1-4-1-8-1-13z m13 69c8 0 17 0 25 0 1 0 1-1 1-2 0-7 0-14 0-21 0-1-1-3-3-3-8 0-15 0-23 0 0 10 0 18 0 26z m0-43c8 0 15 0 23 0 2 0 3-1 3-2 0-7 0-14 0-21 0-1-1-2-3-2-8 0-15 0-23 0 0 8 0 16 0 25z m0-72c0 9 0 17 0 26 8 0 17 0 25 0 1 0 1-1 1-2 0-9 0-17 0-25-8 1-16 1-26 1z m197-72c-6 0-11 0-16 0-19 0-37 0-56 0-3 0-4 1-4 4 0 29 0 58 0 87 0 2 0 5 3 5 23 0 47 0 71 0 0 0 1 0 1 0 1-33 1-64 1-96z m-41 175c-34 0-63 29-63 64 0 35 28 63 63 63 35 0 64-27 64-63 0-35-28-64-64-64z m180 12c8 0 15 0 23 0 1 0 2-1 2-2 0-7 0-14 0-21 0-1-1-3-2-3-8 0-15 0-23 0 0 10 0 18 0 26z m-41 0c8 0 15 0 23 0 1 0 3-2 3-2 0-7 0-14 0-21 0-1-2-3-3-3-8 0-15 0-23 0 0 10 0 18 0 26z m26-112c0-1-2-3-3-3-8 0-15 0-23 0 0 10 0 18 0 26 8 0 16 0 23 0 1 0 3-2 3-2 0-7 0-14 0-21z m0 43c-10 0-18 0-26 0 0 8 0 16 0 25 6 0 11 0 16 0 10 0 10 0 10-9 0-5 0-11 0-16z m15 26c8 0 16 0 23 0 1 0 2-1 2-2 0-7 0-15 0-23-8 0-17 0-25 0 0 8 0 16 0 25z m25-72c-9 0-17 0-25 0 0 9 0 17 0 26 5 0 10 0 16 0 9 0 9 0 9-9 0-5 0-11 0-17z m-188 188c0 7 0 12 0 19-11 0-21 0-32 0 0-7 0-12 0-18 0-5-1-6-5-6-6 0-13 0-19 0 0-10 0-21 0-31 6 0 11 0 16 0 8 0 8 0 8-8 0-6 0-11 0-16 11 0 21 0 32 0 0 7 0 13 0 19 0 4 1 5 4 5 7 0 13 0 20 0 0 10 0 21 0 31-7 0-13 0-20 0-3 0-4 1-4 5z"/>
<glyph glyph-name="extended-professional" unicode="&#104;" d="M10 80c5-3 10-5 16-5 58 0 116 0 174 0 1 0 3 0 5 0 0 2 0 2 0 4-12 23 7 51 32 51 21 0 39 0 60 0 5 0 10 0 15 1 19 4 36 7 55 12 2-5 2-10 3-17-5-1-10-3-15-3-19-4-36-9-55-9-20-1-42 0-63 0-12 0-19-6-19-17 0-10 7-18 18-18 47 0 97 0 145 0 25 0 42 25 37 51-3 20-20 34-41 34-42 0-83 0-126 0-4 0-7 2-10 3-9 7-16 16-23 24-3 4-6 5-11 4-7-4-14-6-21-7-19-5-38 8-41 27-2 9 0 17 2 26-26 0-53 0-80 0-12 0-19-11-21-23 0-15 9-25 24-25 24 0 48 0 72 0 6-5 8-5 12-10 5-9 10-17 15-26 3-7 7-12 12-19-12-1-22-1-33-3-42-4-85-7-128-10-10-2-17-9-20-19-2-9 2-21 10-26z m483 9c-8 0-17 0-25 0-17 1-33-4-46-16-11-10-24-13-40-13-123 0-244 0-367 0-17 0-17 0-17-19 2-19 7-24 26-24 77 0 155 0 232 0 79 0 157 0 236 0 15 0 20 5 20 21 0 10 0 22 0 32-2 14-7 19-19 19z m-367 164c2 0 4 1 5 3 7 9 16 17 23 26 8 8 15 18 25 29l0-55c16 5 29 12 45 17 5 2 8 5 10 10 5 12 10 24 15 38 5-2 9-4 14-5-7-16-12-31-19-46-2-4-5-7-7-7-19-9-39-16-60-24-11-5-17-15-13-26 3-10 13-15 25-10 24 9 48 17 72 27 5 2 10 7 12 12 12 28 22 57 34 86 10 29-7 56-36 58-22 0-44 0-66 0-14 0-24-5-34-16-24-27-46-54-70-80-9-10-19-20-29-32 18-5 37-5 54-5z m118 143c26 0 48 22 48 49 0 28-21 50-48 50-27 0-48-22-48-50 0-27 22-49 48-49z m225-292c24 0 43 21 43 44 0 24-19 45-43 45-24 0-42-19-42-45 0-23 18-44 42-44z m-206 109c-10-3-22-8-34-13 7-5 12-14 18-14 21-2 41 0 62 0l0 99c-7-15-14-31-21-46-5-14-13-22-25-26z"/>
<glyph glyph-name="extended-medical" unicode="&#105;" d="M353 53c46 44 67 97 60 157-7 61-39 107-92 142 20 35 43 70 63 105-2 2-5 4-9 6 6 8 11 17 16 25-14 9-27 15-41 22-5-8-10-17-15-25-4 1-7 3-11 5-53-87-104-174-157-261 4-2 9-4 14-7-7-10-12-21-19-33 12-6 22-12 34-18 7 10 14 22 19 32 5-3 9-5 14-7 22 38 44 74 65 109 46-25 71-80 64-134-8-67-70-120-140-120-35 0-71 0-109 0l-7 0 0-51 325 0 0 53z m-123 63c-44 24-88 50-131 73-5-6-9-13-14-22 45-24 89-49 133-73 4 7 9 14 12 22z"/>
<glyph glyph-name="extended-homesupport" unicode="&#106;" d="M213 268c-76 0-139-62-139-134 0-73 63-134 139-134 78 0 140 59 140 134 2 74-61 134-140 134z m2-237c-60 0-108 47-108 103 0 56 48 102 106 102 60 0 107-44 107-101 2-56-46-104-105-104z m38 342c-5 20-27 33-48 32-20-4-38-22-38-42 0-16 1-34 3-51 2-11 2-25 3-36 4 0 5 0 7 0 38 8 76 3 109-17 2-1 5-1 8-1 25 0 50 0 75 0 3 0 8 1 10 3 6 3 11 13 8 20-2 8-10 13-18 13-33 0-68 0-101 0-3 0-7 0-12 0 0 2-1 5-1 7-2 14-2 28-4 43 2 9 2 19-1 29z m183-305c-5 23-10 46-15 69-5 27-11 51-16 78-4 13-12 21-25 21-20 0-40 0-60 0 2-1 2-3 4-3 21-22 34-46 39-76 7-35 14-69 20-104 2-12 12-20 23-22 22-1 35 15 30 37z m-225 350c27 0 50 21 50 46 0 27-22 46-50 46-26 0-47-21-49-46 0-25 21-46 49-46z m-28-197c-5-1-3-3-3-6 5-17 20-28 38-28 25 0 50 0 74 0-19 31-72 49-109 34z"/>
<glyph glyph-name="dental-maximums" unicode="&#107;" d="M273 512l-32 0 0-39c-66-6-127-51-127-122 0-78 59-102 123-120l4 0 0-123c-33 2-64 18-84 43l-53-57c35-37 86-53 137-53l0-41 32 0 0 43c74 8 135 51 135 130 0 80-67 102-131 119l-2 0 0 118c27 0 53-12 72-31l47 55c-31 25-76 39-115 39l-6 0z m-32-212c-29 14-53 20-53 55 0 29 26 49 53 53z m32-78c27-10 60-20 60-55 0-36-27-55-60-61z"/>
<glyph glyph-name="dental-recall" unicode="&#108;" d="M499 91c-48 23-93 47-141 70-3 2-9 2-13 2-26 0-55 0-81 0-6 0-12 2-16 4-55 42-110 81-165 123-17 13-36 27-53 40-11 11-28 6-30-11-2-10 4-17 11-23 74-57 150-112 224-169 4-4 12-6 17-6 6 0 10-2 10-9 0-25 0-49 0-74 0-15 0-15-14-15-7 0-9-2-9-14 0-9 2-11 9-11 16 0 33 0 48 0 15 0 32 0 47 0 2 0 8 2 8 4 6 11 0 19-12 19-9 0-9 2-9 9 0 27 0 52 0 78 0 8 2 11 11 10 2 0 4-2 8-2 44-21 87-44 131-65 5-2 11-4 17-2 9 2 13 10 15 19 0 14-4 19-13 23z m-326 188c24-19 51-38 75-57 8-6 16-8 25-8 10 0 21 0 30 0 12 0 23 0 33 0 3 0 7 0 9-2 19-9 36-17 55-26 15-8 32-15 48-23 20-9 41 2 47 23 4 15-4 32-19 40-36 19-74 36-110 55-6 2-13 3-19 3-19 0-38 0-57 0-7 0-13 2-17 6-21 15-40 30-61 46-17 13-38 9-49-8-11-15-8-36 10-49z m39 186c17-12 33-23 50-35 3-3 5-1 7 2 4 8 6 17 0 25-4 11 0 17 6 25 0 2 2 2 2 3 2 4 6 6 11 6 19 0 36 0 55 0 8 0 10-2 10-9 0-50 0-99 0-148 0-10 4-14 9-14 6 0 10 4 10 14 0 26 0 55 0 81 0 27 0 55 0 82 0 11-4 17-17 17-25 0-50 0-76 0-6 0-12-2-15-8-4-5-8-11-12-15-2-4-5-6-11-6-12 2-21-1-31-9-1-6-1-10 2-11z m-98-129c21 0 38 15 38 36 0 21-15 38-36 39-21 0-38-15-38-36 0-22 15-39 36-39z"/>
<glyph glyph-name="drugs" unicode="&#109;" d="M357 430c-52 6-103 9-156 4-18-1-36-4-53-5 0-2 0-5 0-6 0-132 0-263 0-395 0-5 1-8 7-10 68-22 135-24 203-1 6 3 9 5 9 12 0 131 0 261 0 392-1 6-4 8-10 9z m-21-323c-54-9-108-8-162 0-3 1-6 3-6 6 0 83 0 166 0 250 0 1 0 1 1 3 59 11 117 11 176 0l0-10c0-79 0-160 0-239 0-6-2-9-9-10z m41 394c-14 2-28 5-42 6-66 9-131 6-197-6-8-1-10-5-10-12 0-14 0-28 0-43 0-11 1-11 12-10 40 5 121 11 121 11 16-1 32-1 47-2 22-2 44-5 66-9 9-1 10 0 10 9 0 16 0 32 0 47 0 5-2 8-7 9z m-49-158l-143 0 0-26 143 0z m-143-114l143 0 0 26-143 0z m0 47l143 0 0 25-143 0z m-1-93l76 0 0 25-76 0z"/>
<glyph glyph-name="extended-ambulance" unicode="&#110;" d="M512 156c-3 15-4 29-7 43-3 17-7 34-11 51-3 9-9 15-18 17-2 2-5 5-7 7-11 28-22 56-34 84-7 19-18 26-37 26-124 0-249 0-372 0-19 0-26-9-26-27 0-68 0-138 0-206 0-3 0-5 0-7 1-7 7-15 14-16 12-1 23 0 33 0 7 40 27 61 60 64 14 1 27-3 39-11 19-13 28-32 29-53 1 0 3 0 3 0 47 0 95 0 142 0 4 0 6 1 6 6 3 44 51 71 89 51 23-11 34-31 36-58 13 0 24 0 37 0 18 1 27 12 24 29z m-206 73l-53 0 0-55-54 0 0 55-54 0 0 54 54 0 0 54 54 0 0-54 54 0 0-54z m38 43l0 89c4 0 7 0 12 0 15 0 32 0 48 0 3 0 6-3 7-4 11-27 23-54 33-83 0 0 0-1 0-2z m-230-94c-29 1-50-20-51-49 0-27 19-49 47-51 27-1 49 20 49 49 2 27-20 49-45 51z m-3-74c-13 0-23 11-23 24 0 13 10 23 23 23 13 0 23-12 23-24 1-12-10-23-23-23z m279 74c-27 0-49-22-50-49 0-27 21-49 47-49 27 0 48 21 50 48 1 26-20 48-47 50z m0-74c-13 0-23 10-24 23 0 12 9 24 22 24 13 0 23-10 23-23 1-13-9-24-21-24z m-47 301c-5 0-9 0-13 0-3 20-10 29-23 29-5 0-11-2-15-4-9-6-9-15-9-23l-13 0 0-10 73 0z"/>
<glyph glyph-name="extended-dental" unicode="&#111;" d="M453 416c-2-38-12-75-22-111-12-43-17-88-19-134-2-43-6-84-20-126-4-10-8-17-14-27-2-4-6-8-12-12-14-10-29-6-35 8-6 12-10 25-14 39-6 34-10 67-16 101-2 15-8 31-17 43-16 20-42 20-58 0-11-14-15-32-19-49-6-36-12-71-18-107-2-9-6-17-10-25-8-16-23-20-37-8-14 10-20 24-24 39-10 32-14 65-18 99-2 35-4 73-7 110-4 32-14 61-22 93-8 25-12 49-12 76-2 59 57 99 106 85 18-4 36-10 54-14 33-8 65-2 98 6 16 4 34 8 49 8 53 4 87-33 87-85 0-2 0-6 0-9z m-189-71c10-10 18-18 27-30 12 12 24 26 38 39 12-13 23-25 35-37 10 8 20 16 30 26-14 13-26 25-40 37 12 12 26 26 38 37-10 10-18 18-28 28-12-12-23-26-37-39-14 13-26 25-36 37-7-8-17-18-27-27 12-12 25-24 37-38-13-12-25-24-37-33z"/>
<glyph glyph-name="extended-hearingaid" unicode="&#112;" d="M85 245c0 43 0 85 0 129 4 60 34 100 89 123 109 45 226-19 249-137 13-76-8-140-65-191-5-4-11-10-17-12-5-3-5-7-7-13-2-59-25-104-78-131-78-40-169 19-169 106-2 42-2 84-2 126z m160-36c-12 9-25 15-40 13-27-2-48-23-48-51 0-29 21-50 48-52 28-1 53 19 53 46 0 9 4 17 9 23 4 4 8 7 12 11 19 17 38 34 55 53 40 46 34 120-12 161-36 33-85 35-121 16-6-2-9-10-6-19 4-8 14-10 21-6 2 0 4 2 6 2 43 17 93-6 104-48 10-36 4-68-24-94-18-19-37-36-57-55z"/>
<glyph glyph-name="clipboard" unicode="&#113;" d="M193 439c0 5 0 9 1 13 0 5 2 8 8 8 27 0 54 0 82 0 5 0 7-3 8-8 0-4 0-9 0-13 7 0 14 0 21 0 8 0 10-3 10-10 0-20 0-39 0-58-44 24-161-8-161 0 0 19 0 38 0 57 0 9 2 11 11 11 7 0 13 0 20 0z m15 7c0-4 0-8 0-11 0-9-2-11-11-11-6 0-13 0-20 0 0-17 0-33 0-49 44 0 131 33 131 49-7 0-14 0-21 0-8 0-10 3-10 10 0 4 0 7 0 12-23 0-46 0-69 0z m22-146c7 0 14 0 21 0 0 7 0 14 0 21 8 0 15 0 24 0 0 7 0 16 0 23-9 0-16 0-24 0 0 7 0 10 0 19-7 0-14 0-21 0 0-9 0-12 0-19-7 0-14 0-20 0 0-7 0-16 0-23 6 0 13 0 20 0 0-7 0-14 0-21z m162 116c-1 3-3 6-7 6-13 0-27 0-41 0-1 0-1 0-2 0l-28 0 0 2 9 0c0 1 0 3 0 5 0 8-2 10-10 10-7 0-14 0-21 0 0 5 0 9 0 13-1 6-3 8-8 8-28 0-55 0-83 0-5 0-7-3-8-8 0-4 0-8 0-13-7 0-13 0-20 0-9 0-11-2-11-11 0-2 0-3 0-4l15 0 0-2-36 0c-1 0-2 0-3 0-13 0-25 0-38 0-5 0-8-2-8-7 0-2 0-3 0-4 0-118 0-235 0-353 0-10 2-11 12-11 92 0 184 0 276 0 10 0 12 1 12 11 0 118 0 235 0 353 0 2 0 3 0 5z m-227-322c-2 2-5 5-8 7-3-2-6-4-9-7-3 3-6 6-9 10 2 2 4 4 7 8-3 2-5 5-8 8 4 3 7 6 10 9 3-2 6-4 9-7 3 3 5 5 9 8 3-3 6-6 9-10-3-2-5-5-8-8 3-3 5-6 8-9-3-3-6-6-10-9z m-13 65c-6 6-13 13-20 20 3 2 7 5 11 8 2-2 6-5 10-10 6 7 12 13 18 20 4-4 7-7 10-10-10-9-19-19-29-28z m1 66c-6 6-12 12-19 20 1 1 4 4 7 7 4-3 8-6 13-10 5 6 11 13 16 19 5-4 8-7 11-10-10-9-19-18-28-26z m88 205c8 0 15-7 15-14 0-8-7-15-15-15-8 0-14 7-14 15 0 7 6 14 14 14z m1-53c25 0 46-20 46-45 0-26-21-46-46-46-26 0-47 20-47 46 0 25 21 45 47 45z m97-271c-43 0-86 0-130 0 0 3 0 8 0 14 42 0 87 0 130 0 0-6 0-9 0-14z m0 64c-43 0-86 0-130 0 0 3 0 7 0 12 42 0 87 0 130 0 0-3 0-7 0-12z m0 64c-43 0-86 0-130 0 0 5 0 9 0 12 42 0 87 0 130 0 0-3 0-7 0-12z"/>
<glyph glyph-name="thumbup" unicode="&#114;" d="M163 136c0 41 0 82 0 123 12 0 24 0 36 0 6 0 10 2 13 7 6 10 11 21 18 32 5 9 12 17 18 26 12 14 17 31 19 49 1 9 1 17 1 26 0 9 2 11 11 9 9-3 15-10 18-19 5-15 5-31 4-47-1-9-2-18-3-27-1-10 3-14 13-14 16 0 33 0 50-1 15-1 26-12 36-22 4-4 3-9 1-14-3-9-3-17 1-25 4-6 3-13-1-19-5-7-7-15-5-24 1-5-1-10-3-14-2-3-5-6-8-8-5-5-9-9-8-17 0-12-11-25-22-26-25-4-49-5-73 0-15 3-30 5-45 9-9 2-18-1-27-1-12-1-24-2-36-3-3 0-5 0-8 0z m-61 56c0 22 0 43 0 65 0 8 2 9 9 9 12 0 24 0 35 0 7 0 8-2 8-8 0-44 0-88 0-131 0-6-2-8-7-8-13 0-25 0-37 0-6 0-8 2-8 8 0 22 0 43 0 65z"/>
</font></defs></svg>
